<?xml version="1.0" encoding="utf-8"?>
<svg xmlns="http://www.w3.org/2000/svg" xmlns:xlink="http://www.w3.org/1999/xlink" style="margin: auto; background: none; display: block; shape-rendering: auto;" width="58px" height="58px" viewBox="0 0 100 100" preserveAspectRatio="xMidYMid">
<path d="M10 50A40 40 0 0 0 90 50A40 43.9 0 0 1 10 50" fill="#0051a2" stroke="none" transform="rotate(107.207 50 51.95)">
  <animateTransform attributeName="transform" type="rotate" dur="0.7575757575757576s" repeatCount="indefinite" keyTimes="0;1" values="0 50 51.95;360 50 51.95"></animateTransform>
</path>
<!-- [ldio] generated by https://loading.io/ --></svg>